<?xml version="1.0" encoding="UTF-8"?>
<svg xmlns="http://www.w3.org/2000/svg" width="131" height="20">
    <linearGradient id="b" x2="0" y2="100%">
        <stop offset="0" stop-color="#bbb" stop-opacity=".1"/>
        <stop offset="1" stop-opacity=".1"/>
    </linearGradient>
    <mask id="anybadge_4">
        <rect width="131" height="20" rx="3" fill="#fff"/>
    </mask>
    <g mask="url(#anybadge_4)">
        <path fill="#555" d="M0 0h114v20H0z"/>
        <path fill="#4c1" d="M114 0h17v20H114z"/>
        <path fill="url(#b)" d="M0 0h131v20H0z"/>
    </g>
    <g fill="#fff" text-anchor="middle" font-family="DejaVu Sans,Verdana,Geneva,sans-serif" font-size="11">
        <text x="58.0" y="15" fill="#010101" fill-opacity=".3">Tagged days ago:</text>
        <text x="57.0" y="14">Tagged days ago:</text>
    </g>
    <g fill="#fff" text-anchor="middle" font-family="DejaVu Sans,Verdana,Geneva,sans-serif" font-size="11">
        <text x="123.5" y="15" fill="#010101" fill-opacity=".3">1</text>
        <text x="122.5" y="14">1</text>
    </g>
</svg>